[gd_scene load_steps=135 format=2]

[ext_resource path="res://Scenes/EnemyFrog.tscn" type="PackedScene" id=1]
[ext_resource path="res://Scenes/Player.tscn" type="PackedScene" id=2]
[ext_resource path="res://Assets/swamp/1 Tiles/Tile_01.png" type="Texture" id=3]
[ext_resource path="res://Assets/swamp/1 Tiles/Tile_03.png" type="Texture" id=4]
[ext_resource path="res://Assets/swamp/1 Tiles/Tile_02.png" type="Texture" id=5]
[ext_resource path="res://Assets/swamp/2 Background/Background.png" type="Texture" id=6]
[ext_resource path="res://Assets/swamp/3 Objects/Pointers/8.png" type="Texture" id=7]
[ext_resource path="res://Scenes/AreaTrigger.tscn" type="PackedScene" id=9]
[ext_resource path="res://Scenes/TimeCounter.tscn" type="PackedScene" id=10]
[ext_resource path="res://Scenes/StageOne.gd" type="Script" id=11]
[ext_resource path="res://Assets/swamp/1 Tiles/Tile_12.png" type="Texture" id=12]
[ext_resource path="res://Assets/swamp/1 Tiles/Tile_13.png" type="Texture" id=13]
[ext_resource path="res://Assets/swamp/1 Tiles/Tile_14.png" type="Texture" id=14]
[ext_resource path="res://Assets/swamp/1 Tiles/Tile_15.png" type="Texture" id=15]
[ext_resource path="res://Assets/swamp/1 Tiles/Tile_16.png" type="Texture" id=16]
[ext_resource path="res://Assets/swamp/1 Tiles/Tile_17.png" type="Texture" id=17]
[ext_resource path="res://Assets/swamp/1 Tiles/Tile_18.png" type="Texture" id=18]
[ext_resource path="res://Assets/swamp/1 Tiles/Tile_19.png" type="Texture" id=19]
[ext_resource path="res://Assets/swamp/1 Tiles/Tile_20.png" type="Texture" id=20]
[ext_resource path="res://Assets/swamp/1 Tiles/Tile_21.png" type="Texture" id=21]
[ext_resource path="res://Assets/swamp/1 Tiles/Tile_22.png" type="Texture" id=22]
[ext_resource path="res://Assets/swamp/1 Tiles/Tile_23.png" type="Texture" id=23]
[ext_resource path="res://Assets/swamp/1 Tiles/Tile_24.png" type="Texture" id=24]
[ext_resource path="res://Assets/swamp/1 Tiles/Tile_25.png" type="Texture" id=25]
[ext_resource path="res://Assets/swamp/1 Tiles/Tile_26.png" type="Texture" id=26]
[ext_resource path="res://Assets/swamp/1 Tiles/Tile_27.png" type="Texture" id=27]
[ext_resource path="res://Assets/swamp/1 Tiles/Tile_28.png" type="Texture" id=28]
[ext_resource path="res://Assets/swamp/1 Tiles/Tile_29.png" type="Texture" id=29]
[ext_resource path="res://Assets/swamp/1 Tiles/Tile_30.png" type="Texture" id=30]
[ext_resource path="res://Assets/swamp/1 Tiles/Tile_31.png" type="Texture" id=31]
[ext_resource path="res://Assets/swamp/1 Tiles/Tile_32.png" type="Texture" id=32]
[ext_resource path="res://Assets/swamp/1 Tiles/Tile_33.png" type="Texture" id=33]
[ext_resource path="res://Assets/swamp/1 Tiles/Tile_34.png" type="Texture" id=34]
[ext_resource path="res://Assets/swamp/1 Tiles/Tile_35.png" type="Texture" id=35]
[ext_resource path="res://Assets/swamp/1 Tiles/Tile_36.png" type="Texture" id=36]
[ext_resource path="res://Assets/swamp/1 Tiles/Tile_37.png" type="Texture" id=37]
[ext_resource path="res://Assets/swamp/1 Tiles/Tile_38.png" type="Texture" id=38]
[ext_resource path="res://Assets/swamp/1 Tiles/Tile_39.png" type="Texture" id=39]
[ext_resource path="res://Assets/swamp/1 Tiles/Tile_40.png" type="Texture" id=40]
[ext_resource path="res://Assets/swamp/1 Tiles/Tile_41.png" type="Texture" id=41]
[ext_resource path="res://Assets/swamp/1 Tiles/Tile_42.png" type="Texture" id=42]
[ext_resource path="res://Assets/swamp/1 Tiles/Tile_43.png" type="Texture" id=43]
[ext_resource path="res://Assets/swamp/1 Tiles/Tile_44.png" type="Texture" id=44]
[ext_resource path="res://Assets/swamp/1 Tiles/Tile_45.png" type="Texture" id=45]
[ext_resource path="res://Assets/swamp/1 Tiles/Tile_46.png" type="Texture" id=46]
[ext_resource path="res://Assets/swamp/1 Tiles/Tile_47.png" type="Texture" id=47]
[ext_resource path="res://Assets/swamp/1 Tiles/Tile_48.png" type="Texture" id=48]
[ext_resource path="res://Assets/swamp/1 Tiles/Tile_50.png" type="Texture" id=49]
[ext_resource path="res://Assets/swamp/1 Tiles/Tile_51.png" type="Texture" id=50]
[ext_resource path="res://Assets/swamp/1 Tiles/Tile_52.png" type="Texture" id=51]
[ext_resource path="res://Assets/swamp/1 Tiles/Tile_53.png" type="Texture" id=52]
[ext_resource path="res://Assets/swamp/1 Tiles/Tile_54.png" type="Texture" id=53]
[ext_resource path="res://Assets/swamp/1 Tiles/Tile_55.png" type="Texture" id=54]
[ext_resource path="res://Assets/swamp/1 Tiles/Tile_56.png" type="Texture" id=55]
[ext_resource path="res://Assets/swamp/1 Tiles/Tile_57.png" type="Texture" id=56]
[ext_resource path="res://Assets/swamp/1 Tiles/Tile_58.png" type="Texture" id=57]
[ext_resource path="res://Assets/swamp/1 Tiles/Tile_60.png" type="Texture" id=58]
[ext_resource path="res://Assets/swamp/1 Tiles/Tile_04.png" type="Texture" id=59]
[ext_resource path="res://Assets/swamp/1 Tiles/Tile_05.png" type="Texture" id=60]
[ext_resource path="res://Assets/swamp/1 Tiles/Tile_06.png" type="Texture" id=61]
[ext_resource path="res://Assets/swamp/1 Tiles/Tile_10.png" type="Texture" id=62]
[ext_resource path="res://Assets/swamp/1 Tiles/Tile_11.png" type="Texture" id=63]
[ext_resource path="res://Scenes/AreaFinish.gd" type="Script" id=64]

[sub_resource type="ConvexPolygonShape2D" id=1]
points = PoolVector2Array( 0, 0, 32, 0, 32, 32, 0, 32 )

[sub_resource type="ConvexPolygonShape2D" id=2]
points = PoolVector2Array( 0, 0, 32, 0, 32, 32, 0, 32 )

[sub_resource type="ConvexPolygonShape2D" id=3]
points = PoolVector2Array( 32, 32, 0, 32, 0, 0, 32, 0 )

[sub_resource type="ConvexPolygonShape2D" id=4]
points = PoolVector2Array( 32, 32, 0, 32, 0, 0, 32, 0 )

[sub_resource type="ConvexPolygonShape2D" id=5]
points = PoolVector2Array( 32, 32, 0, 32, 0, 0, 32, 0 )

[sub_resource type="ConvexPolygonShape2D" id=6]
points = PoolVector2Array( 32, 32, 0, 32, 0, 0, 32, 0 )

[sub_resource type="ConvexPolygonShape2D" id=7]
points = PoolVector2Array( 32, 32, 0, 32, 0, 0, 32, 0 )

[sub_resource type="ConvexPolygonShape2D" id=8]
points = PoolVector2Array( 32, 32, 0, 32, 0, 0, 32, 0 )

[sub_resource type="ConvexPolygonShape2D" id=9]
points = PoolVector2Array( 32, 32, 0, 32, 0, 0, 32, 0 )

[sub_resource type="ConvexPolygonShape2D" id=10]
points = PoolVector2Array( 32, 32, 0, 32, 0, 0, 32, 0 )

[sub_resource type="ConvexPolygonShape2D" id=11]
points = PoolVector2Array( 32, 32, 0, 32, 0, 0, 32, 0 )

[sub_resource type="ConvexPolygonShape2D" id=12]
points = PoolVector2Array( 32, 32, 0, 32, 0, 0, 32, 0 )

[sub_resource type="ConvexPolygonShape2D" id=13]
points = PoolVector2Array( 32, 32, 0, 32, 0, 0, 32, 0 )

[sub_resource type="ConvexPolygonShape2D" id=14]
points = PoolVector2Array( 32, 32, 0, 32, 0, 0, 32, 0 )

[sub_resource type="ConvexPolygonShape2D" id=15]
points = PoolVector2Array( 32, 32, 0, 32, 0, 0, 32, 0 )

[sub_resource type="ConvexPolygonShape2D" id=16]
points = PoolVector2Array( 32, 32, 0, 32, 0, 0, 32, 0 )

[sub_resource type="ConvexPolygonShape2D" id=17]
points = PoolVector2Array( 32, 32, 0, 32, 0, 0, 32, 0 )

[sub_resource type="ConvexPolygonShape2D" id=18]
points = PoolVector2Array( 32, 32, 0, 32, 0, 0, 32, 0 )

[sub_resource type="ConvexPolygonShape2D" id=19]
points = PoolVector2Array( 32, 32, 0, 32, 0, 0, 32, 0 )

[sub_resource type="ConvexPolygonShape2D" id=20]
points = PoolVector2Array( 32, 32, 0, 32, 0, 0, 32, 0 )

[sub_resource type="ConvexPolygonShape2D" id=21]
points = PoolVector2Array( 0, 0, 32, 0, 32, 32, 0, 32 )

[sub_resource type="ConvexPolygonShape2D" id=22]
points = PoolVector2Array( 0, 0, 32, 0, 32, 32, 0, 32 )

[sub_resource type="ConvexPolygonShape2D" id=23]
points = PoolVector2Array( 32, 32, 0, 32, 0, 0, 32, 0 )

[sub_resource type="ConvexPolygonShape2D" id=24]
points = PoolVector2Array( 32, 32, 0, 32, 0, 0, 32, 0 )

[sub_resource type="ConvexPolygonShape2D" id=25]
points = PoolVector2Array( 32, 32, 0, 32, 0, 0, 32, 0 )

[sub_resource type="ConvexPolygonShape2D" id=26]
points = PoolVector2Array( 32, 32, 0, 32, 0, 0, 32, 0 )

[sub_resource type="ConvexPolygonShape2D" id=27]
points = PoolVector2Array( 32, 32, 0, 32, 0, 0, 32, 0 )

[sub_resource type="ConvexPolygonShape2D" id=28]
points = PoolVector2Array( 32, 32, 0, 32, 0, 0, 32, 0 )

[sub_resource type="ConvexPolygonShape2D" id=29]
points = PoolVector2Array( 32, 32, 0, 32, 0, 0, 32, 0 )

[sub_resource type="ConvexPolygonShape2D" id=30]
points = PoolVector2Array( 32, 32, 0, 32, 0, 0, 32, 0 )

[sub_resource type="ConvexPolygonShape2D" id=31]
points = PoolVector2Array( 0, 0, 32, 0, 32, 32, 0, 32 )

[sub_resource type="ConvexPolygonShape2D" id=32]
points = PoolVector2Array( 32, 32, 0, 32, 0, 0, 32, 0 )

[sub_resource type="ConvexPolygonShape2D" id=33]
points = PoolVector2Array( 32, 32, 0, 32, 0, 0, 32, 0 )

[sub_resource type="ConvexPolygonShape2D" id=34]
points = PoolVector2Array( 32, 32, 0, 32, 0, 0, 32, 0 )

[sub_resource type="ConvexPolygonShape2D" id=35]
points = PoolVector2Array( 32, 32, 0, 32, 0, 0, 32, 0 )

[sub_resource type="ConvexPolygonShape2D" id=36]
points = PoolVector2Array( 32, 32, 0, 32, 0, 0, 32, 0 )

[sub_resource type="ConvexPolygonShape2D" id=37]
points = PoolVector2Array( 32, 32, 0, 32, 0, 0, 32, 0 )

[sub_resource type="ConvexPolygonShape2D" id=38]
points = PoolVector2Array( 32, 32, 0, 32, 0, 0, 32, 0 )

[sub_resource type="ConvexPolygonShape2D" id=39]
points = PoolVector2Array( 32, 32, 0, 32, 0, 0, 32, 0 )

[sub_resource type="ConvexPolygonShape2D" id=40]
points = PoolVector2Array( 32, 32, 0, 32, 0, 0, 32, 0 )

[sub_resource type="ConvexPolygonShape2D" id=41]
points = PoolVector2Array( 32, 32, 32, 32, 0, 32, 32, 0 )

[sub_resource type="ConvexPolygonShape2D" id=42]
points = PoolVector2Array( 32, 32, 0, 32, 0, 0, 0, 0 )

[sub_resource type="ConvexPolygonShape2D" id=43]
points = PoolVector2Array( 32, 32, 0, 32, 0, 0, 32, 0 )

[sub_resource type="ConvexPolygonShape2D" id=44]
points = PoolVector2Array( 32, 32, 0, 32, 0, 0, 32, 0 )

[sub_resource type="ConvexPolygonShape2D" id=45]
points = PoolVector2Array( 32, 32, 0, 32, 0, 0, 32, 0 )

[sub_resource type="ConvexPolygonShape2D" id=46]
points = PoolVector2Array( 32, 32, 0, 32, 0, 0, 32, 0 )

[sub_resource type="ConvexPolygonShape2D" id=47]
points = PoolVector2Array( 32, 32, 0, 32, 0, 0, 32, 0 )

[sub_resource type="ConvexPolygonShape2D" id=48]
points = PoolVector2Array( 32, 32, 0, 32, 0, 0, 32, 0 )

[sub_resource type="ConvexPolygonShape2D" id=49]
points = PoolVector2Array( 0, 0, 32, 0, 32, 32, 0, 32 )

[sub_resource type="ConvexPolygonShape2D" id=50]
points = PoolVector2Array( 32, 32, 0, 32, 0, 0, 32, 0 )

[sub_resource type="ConvexPolygonShape2D" id=51]
points = PoolVector2Array( 32, 32, 0, 32, 0, 0, 32, 0 )

[sub_resource type="ConvexPolygonShape2D" id=52]
points = PoolVector2Array( 32, 32, 0, 32, 0, 0, 32, 0 )

[sub_resource type="ConvexPolygonShape2D" id=53]
points = PoolVector2Array( 32, 32, 0, 32, 0, 0, 32, 0 )

[sub_resource type="ConvexPolygonShape2D" id=54]
points = PoolVector2Array( 32, 32, 0, 32, 0, 0, 32, 0 )

[sub_resource type="ConvexPolygonShape2D" id=55]
points = PoolVector2Array( 32, 32, 0, 32, 0, 0, 32, 0 )

[sub_resource type="ConvexPolygonShape2D" id=56]
points = PoolVector2Array( 32, 32, 0, 32, 0, 0, 32, 0 )

[sub_resource type="ConvexPolygonShape2D" id=57]
points = PoolVector2Array( 32, 32, 0, 32, 0, 0, 32, 0 )

[sub_resource type="ConvexPolygonShape2D" id=58]
points = PoolVector2Array( 32, 32, 0, 32, 0, 0, 32, 0 )

[sub_resource type="ConvexPolygonShape2D" id=59]
points = PoolVector2Array( 32, 32, 0, 32, 0, 0, 32, 0 )

[sub_resource type="ConvexPolygonShape2D" id=60]
points = PoolVector2Array( 32, 32, 0, 32, 0, 0, 32, 0 )

[sub_resource type="ConvexPolygonShape2D" id=61]
points = PoolVector2Array( 32, 32, 0, 32, 0, 0, 32, 0 )

[sub_resource type="ConvexPolygonShape2D" id=62]
points = PoolVector2Array( 32, 32, 0, 32, 0, 0, 32, 0 )

[sub_resource type="ConvexPolygonShape2D" id=63]
points = PoolVector2Array( 32, 32, 0, 32, 0, 0, 32, 0 )

[sub_resource type="ConvexPolygonShape2D" id=64]
points = PoolVector2Array( 32, 32, 0, 32, 0, 0, 32, 0 )

[sub_resource type="ConvexPolygonShape2D" id=65]
points = PoolVector2Array( 32, 32, 0, 32, 0, 0, 32, 0 )

[sub_resource type="ConvexPolygonShape2D" id=66]
points = PoolVector2Array( 32, 32, 0, 32, 0, 0, 32, 0 )

[sub_resource type="ConvexPolygonShape2D" id=67]
points = PoolVector2Array( 32, 32, 0, 32, 0, 0, 32, 0 )

[sub_resource type="ConvexPolygonShape2D" id=68]
points = PoolVector2Array( 32, 32, 0, 32, 0, 0, 32, 0 )

[sub_resource type="TileSet" id=69]
0/name = "Tile_01.png 0"
0/texture = ExtResource( 3 )
0/tex_offset = Vector2( 0, 0 )
0/modulate = Color( 1, 1, 1, 1 )
0/region = Rect2( 0, 0, 32, 32 )
0/tile_mode = 0
0/occluder_offset = Vector2( 0, 0 )
0/navigation_offset = Vector2( 0, 0 )
0/shape_offset = Vector2( 0, 0 )
0/shape_transform = Transform2D( 1, 0, 0, 1, 0, 0 )
0/shape = SubResource( 1 )
0/shape_one_way = false
0/shape_one_way_margin = 1.0
0/shapes = [ {
"autotile_coord": Vector2( 0, 0 ),
"one_way": false,
"one_way_margin": 1.0,
"shape": SubResource( 1 ),
"shape_transform": Transform2D( 1, 0, 0, 1, 0, 0 )
} ]
0/z_index = 0
1/name = "Tile_02.png 1"
1/texture = ExtResource( 5 )
1/tex_offset = Vector2( 0, 0 )
1/modulate = Color( 1, 1, 1, 1 )
1/region = Rect2( 0, 0, 32, 32 )
1/tile_mode = 0
1/occluder_offset = Vector2( 0, 0 )
1/navigation_offset = Vector2( 0, 0 )
1/shape_offset = Vector2( 0, 0 )
1/shape_transform = Transform2D( 1, 0, 0, 1, 0, 0 )
1/shape = SubResource( 2 )
1/shape_one_way = false
1/shape_one_way_margin = 1.0
1/shapes = [ {
"autotile_coord": Vector2( 0, 0 ),
"one_way": false,
"one_way_margin": 1.0,
"shape": SubResource( 2 ),
"shape_transform": Transform2D( 1, 0, 0, 1, 0, 0 )
} ]
1/z_index = 0
2/name = "Tile_03.png 2"
2/texture = ExtResource( 4 )
2/tex_offset = Vector2( 0, 0 )
2/modulate = Color( 1, 1, 1, 1 )
2/region = Rect2( 0, 0, 32, 32 )
2/tile_mode = 0
2/occluder_offset = Vector2( 0, 0 )
2/navigation_offset = Vector2( 0, 0 )
2/shape_offset = Vector2( 0, 0 )
2/shape_transform = Transform2D( 1, 0, 0, 1, 0, 0 )
2/shape = SubResource( 14 )
2/shape_one_way = false
2/shape_one_way_margin = 1.0
2/shapes = [ {
"autotile_coord": Vector2( 0, 0 ),
"one_way": false,
"one_way_margin": 1.0,
"shape": SubResource( 14 ),
"shape_transform": Transform2D( 1, 0, 0, 1, 0, 0 )
} ]
2/z_index = 0
3/name = "Tile_12.png 3"
3/texture = ExtResource( 12 )
3/tex_offset = Vector2( 0, 0 )
3/modulate = Color( 1, 1, 1, 1 )
3/region = Rect2( 0, 0, 32, 32 )
3/tile_mode = 0
3/occluder_offset = Vector2( 0, 0 )
3/navigation_offset = Vector2( 0, 0 )
3/shape_offset = Vector2( 0, 0 )
3/shape_transform = Transform2D( 1, 0, 0, 1, 0, 0 )
3/shape = SubResource( 28 )
3/shape_one_way = false
3/shape_one_way_margin = 1.0
3/shapes = [ {
"autotile_coord": Vector2( 0, 0 ),
"one_way": false,
"one_way_margin": 1.0,
"shape": SubResource( 28 ),
"shape_transform": Transform2D( 1, 0, 0, 1, 0, 0 )
} ]
3/z_index = 0
4/name = "Tile_13.png 4"
4/texture = ExtResource( 13 )
4/tex_offset = Vector2( 0, 0 )
4/modulate = Color( 1, 1, 1, 1 )
4/region = Rect2( 0, 0, 32, 32 )
4/tile_mode = 0
4/occluder_offset = Vector2( 0, 0 )
4/navigation_offset = Vector2( 0, 0 )
4/shape_offset = Vector2( 0, 0 )
4/shape_transform = Transform2D( 1, 0, 0, 1, 0, 0 )
4/shape = SubResource( 43 )
4/shape_one_way = false
4/shape_one_way_margin = 1.0
4/shapes = [ {
"autotile_coord": Vector2( 0, 0 ),
"one_way": false,
"one_way_margin": 1.0,
"shape": SubResource( 43 ),
"shape_transform": Transform2D( 1, 0, 0, 1, 0, 0 )
} ]
4/z_index = 0
5/name = "Tile_14.png 5"
5/texture = ExtResource( 14 )
5/tex_offset = Vector2( 0, 0 )
5/modulate = Color( 1, 1, 1, 1 )
5/region = Rect2( 0, 0, 32, 32 )
5/tile_mode = 0
5/occluder_offset = Vector2( 0, 0 )
5/navigation_offset = Vector2( 0, 0 )
5/shape_offset = Vector2( 0, 0 )
5/shape_transform = Transform2D( 1, 0, 0, 1, 0, 0 )
5/shape = SubResource( 58 )
5/shape_one_way = false
5/shape_one_way_margin = 1.0
5/shapes = [ {
"autotile_coord": Vector2( 0, 0 ),
"one_way": false,
"one_way_margin": 1.0,
"shape": SubResource( 58 ),
"shape_transform": Transform2D( 1, 0, 0, 1, 0, 0 )
} ]
5/z_index = 0
6/name = "Tile_15.png 6"
6/texture = ExtResource( 15 )
6/tex_offset = Vector2( 0, 0 )
6/modulate = Color( 1, 1, 1, 1 )
6/region = Rect2( 0, 0, 32, 32 )
6/tile_mode = 0
6/occluder_offset = Vector2( 0, 0 )
6/navigation_offset = Vector2( 0, 0 )
6/shape_offset = Vector2( 0, 0 )
6/shape_transform = Transform2D( 1, 0, 0, 1, 0, 0 )
6/shape = SubResource( 64 )
6/shape_one_way = false
6/shape_one_way_margin = 1.0
6/shapes = [ {
"autotile_coord": Vector2( 0, 0 ),
"one_way": false,
"one_way_margin": 1.0,
"shape": SubResource( 64 ),
"shape_transform": Transform2D( 1, 0, 0, 1, 0, 0 )
} ]
6/z_index = 0
7/name = "Tile_16.png 7"
7/texture = ExtResource( 16 )
7/tex_offset = Vector2( 0, 0 )
7/modulate = Color( 1, 1, 1, 1 )
7/region = Rect2( 0, 0, 32, 32 )
7/tile_mode = 0
7/occluder_offset = Vector2( 0, 0 )
7/navigation_offset = Vector2( 0, 0 )
7/shape_offset = Vector2( 0, 0 )
7/shape_transform = Transform2D( 1, 0, 0, 1, 0, 0 )
7/shape = SubResource( 65 )
7/shape_one_way = false
7/shape_one_way_margin = 1.0
7/shapes = [ {
"autotile_coord": Vector2( 0, 0 ),
"one_way": false,
"one_way_margin": 1.0,
"shape": SubResource( 65 ),
"shape_transform": Transform2D( 1, 0, 0, 1, 0, 0 )
} ]
7/z_index = 0
8/name = "Tile_17.png 8"
8/texture = ExtResource( 17 )
8/tex_offset = Vector2( 0, 0 )
8/modulate = Color( 1, 1, 1, 1 )
8/region = Rect2( 0, 0, 32, 32 )
8/tile_mode = 0
8/occluder_offset = Vector2( 0, 0 )
8/navigation_offset = Vector2( 0, 0 )
8/shape_offset = Vector2( 0, 0 )
8/shape_transform = Transform2D( 1, 0, 0, 1, 0, 0 )
8/shape = SubResource( 66 )
8/shape_one_way = false
8/shape_one_way_margin = 1.0
8/shapes = [ {
"autotile_coord": Vector2( 0, 0 ),
"one_way": false,
"one_way_margin": 1.0,
"shape": SubResource( 66 ),
"shape_transform": Transform2D( 1, 0, 0, 1, 0, 0 )
} ]
8/z_index = 0
9/name = "Tile_18.png 9"
9/texture = ExtResource( 18 )
9/tex_offset = Vector2( 0, 0 )
9/modulate = Color( 1, 1, 1, 1 )
9/region = Rect2( 0, 0, 32, 32 )
9/tile_mode = 0
9/occluder_offset = Vector2( 0, 0 )
9/navigation_offset = Vector2( 0, 0 )
9/shape_offset = Vector2( 0, 0 )
9/shape_transform = Transform2D( 1, 0, 0, 1, 0, 0 )
9/shape = SubResource( 67 )
9/shape_one_way = false
9/shape_one_way_margin = 1.0
9/shapes = [ {
"autotile_coord": Vector2( 0, 0 ),
"one_way": false,
"one_way_margin": 1.0,
"shape": SubResource( 67 ),
"shape_transform": Transform2D( 1, 0, 0, 1, 0, 0 )
}, {
"autotile_coord": Vector2( 0, 0 ),
"one_way": false,
"one_way_margin": 1.0,
"shape": SubResource( 68 ),
"shape_transform": Transform2D( 1, 0, 0, 1, 0, 0 )
} ]
9/z_index = 0
10/name = "Tile_19.png 10"
10/texture = ExtResource( 19 )
10/tex_offset = Vector2( 0, 0 )
10/modulate = Color( 1, 1, 1, 1 )
10/region = Rect2( 0, 0, 32, 32 )
10/tile_mode = 0
10/occluder_offset = Vector2( 0, 0 )
10/navigation_offset = Vector2( 0, 0 )
10/shape_offset = Vector2( 0, 0 )
10/shape_transform = Transform2D( 1, 0, 0, 1, 0, 0 )
10/shape = SubResource( 3 )
10/shape_one_way = false
10/shape_one_way_margin = 1.0
10/shapes = [ {
"autotile_coord": Vector2( 0, 0 ),
"one_way": false,
"one_way_margin": 1.0,
"shape": SubResource( 3 ),
"shape_transform": Transform2D( 1, 0, 0, 1, 0, 0 )
} ]
10/z_index = 0
11/name = "Tile_20.png 11"
11/texture = ExtResource( 20 )
11/tex_offset = Vector2( 0, 0 )
11/modulate = Color( 1, 1, 1, 1 )
11/region = Rect2( 0, 0, 32, 32 )
11/tile_mode = 0
11/occluder_offset = Vector2( 0, 0 )
11/navigation_offset = Vector2( 0, 0 )
11/shape_offset = Vector2( 0, 0 )
11/shape_transform = Transform2D( 1, 0, 0, 1, 0, 0 )
11/shape = SubResource( 4 )
11/shape_one_way = false
11/shape_one_way_margin = 1.0
11/shapes = [ {
"autotile_coord": Vector2( 0, 0 ),
"one_way": false,
"one_way_margin": 1.0,
"shape": SubResource( 4 ),
"shape_transform": Transform2D( 1, 0, 0, 1, 0, 0 )
}, {
"autotile_coord": Vector2( 0, 0 ),
"one_way": false,
"one_way_margin": 1.0,
"shape": SubResource( 5 ),
"shape_transform": Transform2D( 1, 0, 0, 1, 0, 0 )
} ]
11/z_index = 0
12/name = "Tile_21.png 12"
12/texture = ExtResource( 21 )
12/tex_offset = Vector2( 0, 0 )
12/modulate = Color( 1, 1, 1, 1 )
12/region = Rect2( 0, 0, 32, 32 )
12/tile_mode = 0
12/occluder_offset = Vector2( 0, 0 )
12/navigation_offset = Vector2( 0, 0 )
12/shape_offset = Vector2( 0, 0 )
12/shape_transform = Transform2D( 1, 0, 0, 1, 0, 0 )
12/shape = SubResource( 6 )
12/shape_one_way = false
12/shape_one_way_margin = 1.0
12/shapes = [ {
"autotile_coord": Vector2( 0, 0 ),
"one_way": false,
"one_way_margin": 1.0,
"shape": SubResource( 6 ),
"shape_transform": Transform2D( 1, 0, 0, 1, 0, 0 )
} ]
12/z_index = 0
13/name = "Tile_22.png 13"
13/texture = ExtResource( 22 )
13/tex_offset = Vector2( 0, 0 )
13/modulate = Color( 1, 1, 1, 1 )
13/region = Rect2( 0, 0, 32, 32 )
13/tile_mode = 0
13/occluder_offset = Vector2( 0, 0 )
13/navigation_offset = Vector2( 0, 0 )
13/shape_offset = Vector2( 0, 0 )
13/shape_transform = Transform2D( 1, 0, 0, 1, 0, 0 )
13/shape = SubResource( 7 )
13/shape_one_way = false
13/shape_one_way_margin = 1.0
13/shapes = [ {
"autotile_coord": Vector2( 0, 0 ),
"one_way": false,
"one_way_margin": 1.0,
"shape": SubResource( 7 ),
"shape_transform": Transform2D( 1, 0, 0, 1, 0, 0 )
} ]
13/z_index = 0
14/name = "Tile_23.png 14"
14/texture = ExtResource( 23 )
14/tex_offset = Vector2( 0, 0 )
14/modulate = Color( 1, 1, 1, 1 )
14/region = Rect2( 0, 0, 32, 32 )
14/tile_mode = 0
14/occluder_offset = Vector2( 0, 0 )
14/navigation_offset = Vector2( 0, 0 )
14/shape_offset = Vector2( 0, 0 )
14/shape_transform = Transform2D( 1, 0, 0, 1, 0, 0 )
14/shape = SubResource( 8 )
14/shape_one_way = false
14/shape_one_way_margin = 1.0
14/shapes = [ {
"autotile_coord": Vector2( 0, 0 ),
"one_way": false,
"one_way_margin": 1.0,
"shape": SubResource( 8 ),
"shape_transform": Transform2D( 1, 0, 0, 1, 0, 0 )
} ]
14/z_index = 0
15/name = "Tile_24.png 15"
15/texture = ExtResource( 24 )
15/tex_offset = Vector2( 0, 0 )
15/modulate = Color( 1, 1, 1, 1 )
15/region = Rect2( 0, 0, 32, 32 )
15/tile_mode = 0
15/occluder_offset = Vector2( 0, 0 )
15/navigation_offset = Vector2( 0, 0 )
15/shape_offset = Vector2( 0, 0 )
15/shape_transform = Transform2D( 1, 0, 0, 1, 0, 0 )
15/shape = SubResource( 9 )
15/shape_one_way = false
15/shape_one_way_margin = 1.0
15/shapes = [ {
"autotile_coord": Vector2( 0, 0 ),
"one_way": false,
"one_way_margin": 1.0,
"shape": SubResource( 9 ),
"shape_transform": Transform2D( 1, 0, 0, 1, 0, 0 )
} ]
15/z_index = 0
16/name = "Tile_25.png 16"
16/texture = ExtResource( 25 )
16/tex_offset = Vector2( 0, 0 )
16/modulate = Color( 1, 1, 1, 1 )
16/region = Rect2( 0, 0, 32, 32 )
16/tile_mode = 0
16/occluder_offset = Vector2( 0, 0 )
16/navigation_offset = Vector2( 0, 0 )
16/shape_offset = Vector2( 0, 0 )
16/shape_transform = Transform2D( 1, 0, 0, 1, 0, 0 )
16/shape = SubResource( 10 )
16/shape_one_way = false
16/shape_one_way_margin = 1.0
16/shapes = [ {
"autotile_coord": Vector2( 0, 0 ),
"one_way": false,
"one_way_margin": 1.0,
"shape": SubResource( 10 ),
"shape_transform": Transform2D( 1, 0, 0, 1, 0, 0 )
} ]
16/z_index = 0
17/name = "Tile_26.png 17"
17/texture = ExtResource( 26 )
17/tex_offset = Vector2( 0, 0 )
17/modulate = Color( 1, 1, 1, 1 )
17/region = Rect2( 0, 0, 32, 32 )
17/tile_mode = 0
17/occluder_offset = Vector2( 0, 0 )
17/navigation_offset = Vector2( 0, 0 )
17/shape_offset = Vector2( 0, 0 )
17/shape_transform = Transform2D( 1, 0, 0, 1, 0, 0 )
17/shape = SubResource( 11 )
17/shape_one_way = false
17/shape_one_way_margin = 1.0
17/shapes = [ {
"autotile_coord": Vector2( 0, 0 ),
"one_way": false,
"one_way_margin": 1.0,
"shape": SubResource( 11 ),
"shape_transform": Transform2D( 1, 0, 0, 1, 0, 0 )
} ]
17/z_index = 0
18/name = "Tile_27.png 18"
18/texture = ExtResource( 27 )
18/tex_offset = Vector2( 0, 0 )
18/modulate = Color( 1, 1, 1, 1 )
18/region = Rect2( 0, 0, 32, 32 )
18/tile_mode = 0
18/occluder_offset = Vector2( 0, 0 )
18/navigation_offset = Vector2( 0, 0 )
18/shape_offset = Vector2( 0, 0 )
18/shape_transform = Transform2D( 1, 0, 0, 1, 0, 0 )
18/shape = SubResource( 12 )
18/shape_one_way = false
18/shape_one_way_margin = 1.0
18/shapes = [ {
"autotile_coord": Vector2( 0, 0 ),
"one_way": false,
"one_way_margin": 1.0,
"shape": SubResource( 12 ),
"shape_transform": Transform2D( 1, 0, 0, 1, 0, 0 )
} ]
18/z_index = 0
19/name = "Tile_28.png 19"
19/texture = ExtResource( 28 )
19/tex_offset = Vector2( 0, 0 )
19/modulate = Color( 1, 1, 1, 1 )
19/region = Rect2( 0, 0, 32, 32 )
19/tile_mode = 0
19/occluder_offset = Vector2( 0, 0 )
19/navigation_offset = Vector2( 0, 0 )
19/shape_offset = Vector2( 0, 0 )
19/shape_transform = Transform2D( 1, 0, 0, 1, 0, 0 )
19/shape = SubResource( 13 )
19/shape_one_way = false
19/shape_one_way_margin = 1.0
19/shapes = [ {
"autotile_coord": Vector2( 0, 0 ),
"one_way": false,
"one_way_margin": 1.0,
"shape": SubResource( 13 ),
"shape_transform": Transform2D( 1, 0, 0, 1, 0, 0 )
} ]
19/z_index = 0
20/name = "Tile_29.png 20"
20/texture = ExtResource( 29 )
20/tex_offset = Vector2( 0, 0 )
20/modulate = Color( 1, 1, 1, 1 )
20/region = Rect2( 0, 0, 32, 32 )
20/tile_mode = 0
20/occluder_offset = Vector2( 0, 0 )
20/navigation_offset = Vector2( 0, 0 )
20/shape_offset = Vector2( 0, 0 )
20/shape_transform = Transform2D( 1, 0, 0, 1, 0, 0 )
20/shape = SubResource( 15 )
20/shape_one_way = false
20/shape_one_way_margin = 1.0
20/shapes = [ {
"autotile_coord": Vector2( 0, 0 ),
"one_way": false,
"one_way_margin": 1.0,
"shape": SubResource( 15 ),
"shape_transform": Transform2D( 1, 0, 0, 1, 0, 0 )
} ]
20/z_index = 0
21/name = "Tile_30.png 21"
21/texture = ExtResource( 30 )
21/tex_offset = Vector2( 0, 0 )
21/modulate = Color( 1, 1, 1, 1 )
21/region = Rect2( 0, 0, 32, 32 )
21/tile_mode = 0
21/occluder_offset = Vector2( 0, 0 )
21/navigation_offset = Vector2( 0, 0 )
21/shape_offset = Vector2( 0, 0 )
21/shape_transform = Transform2D( 1, 0, 0, 1, 0, 0 )
21/shape = SubResource( 16 )
21/shape_one_way = false
21/shape_one_way_margin = 1.0
21/shapes = [ {
"autotile_coord": Vector2( 0, 0 ),
"one_way": false,
"one_way_margin": 1.0,
"shape": SubResource( 16 ),
"shape_transform": Transform2D( 1, 0, 0, 1, 0, 0 )
} ]
21/z_index = 0
22/name = "Tile_31.png 22"
22/texture = ExtResource( 31 )
22/tex_offset = Vector2( 0, 0 )
22/modulate = Color( 1, 1, 1, 1 )
22/region = Rect2( 0, 0, 32, 32 )
22/tile_mode = 0
22/occluder_offset = Vector2( 0, 0 )
22/navigation_offset = Vector2( 0, 0 )
22/shape_offset = Vector2( 0, 0 )
22/shape_transform = Transform2D( 1, 0, 0, 1, 0, 0 )
22/shape = SubResource( 17 )
22/shape_one_way = false
22/shape_one_way_margin = 1.0
22/shapes = [ {
"autotile_coord": Vector2( 0, 0 ),
"one_way": false,
"one_way_margin": 1.0,
"shape": SubResource( 17 ),
"shape_transform": Transform2D( 1, 0, 0, 1, 0, 0 )
} ]
22/z_index = 0
23/name = "Tile_32.png 23"
23/texture = ExtResource( 32 )
23/tex_offset = Vector2( 0, 0 )
23/modulate = Color( 1, 1, 1, 1 )
23/region = Rect2( 0, 0, 32, 32 )
23/tile_mode = 0
23/occluder_offset = Vector2( 0, 0 )
23/navigation_offset = Vector2( 0, 0 )
23/shape_offset = Vector2( 0, 0 )
23/shape_transform = Transform2D( 1, 0, 0, 1, 0, 0 )
23/shape = SubResource( 18 )
23/shape_one_way = false
23/shape_one_way_margin = 1.0
23/shapes = [ {
"autotile_coord": Vector2( 0, 0 ),
"one_way": false,
"one_way_margin": 1.0,
"shape": SubResource( 18 ),
"shape_transform": Transform2D( 1, 0, 0, 1, 0, 0 )
}, {
"autotile_coord": Vector2( 0, 0 ),
"one_way": false,
"one_way_margin": 1.0,
"shape": SubResource( 19 ),
"shape_transform": Transform2D( 1, 0, 0, 1, 0, 0 )
} ]
23/z_index = 0
24/name = "Tile_33.png 24"
24/texture = ExtResource( 33 )
24/tex_offset = Vector2( 0, 0 )
24/modulate = Color( 1, 1, 1, 1 )
24/region = Rect2( 0, 0, 32, 32 )
24/tile_mode = 0
24/occluder_offset = Vector2( 0, 0 )
24/navigation_offset = Vector2( 0, 0 )
24/shape_offset = Vector2( 0, 0 )
24/shape_transform = Transform2D( 1, 0, 0, 1, 0, 0 )
24/shape = SubResource( 20 )
24/shape_one_way = false
24/shape_one_way_margin = 1.0
24/shapes = [ {
"autotile_coord": Vector2( 0, 0 ),
"one_way": false,
"one_way_margin": 1.0,
"shape": SubResource( 20 ),
"shape_transform": Transform2D( 1, 0, 0, 1, 0, 0 )
}, {
"autotile_coord": Vector2( 0, 0 ),
"one_way": false,
"one_way_margin": 1.0,
"shape": SubResource( 21 ),
"shape_transform": Transform2D( 1, 0, 0, 1, 0, 0 )
}, {
"autotile_coord": Vector2( 0, 0 ),
"one_way": false,
"one_way_margin": 1.0,
"shape": SubResource( 22 ),
"shape_transform": Transform2D( 1, 0, 0, 1, 0, 0 )
} ]
24/z_index = 0
25/name = "Tile_34.png 25"
25/texture = ExtResource( 34 )
25/tex_offset = Vector2( 0, 0 )
25/modulate = Color( 1, 1, 1, 1 )
25/region = Rect2( 0, 0, 32, 32 )
25/tile_mode = 0
25/occluder_offset = Vector2( 0, 0 )
25/navigation_offset = Vector2( 0, 0 )
25/shape_offset = Vector2( 0, 0 )
25/shape_transform = Transform2D( 1, 0, 0, 1, 0, 0 )
25/shape = SubResource( 23 )
25/shape_one_way = false
25/shape_one_way_margin = 1.0
25/shapes = [ {
"autotile_coord": Vector2( 0, 0 ),
"one_way": false,
"one_way_margin": 1.0,
"shape": SubResource( 23 ),
"shape_transform": Transform2D( 1, 0, 0, 1, 0, 0 )
} ]
25/z_index = 0
26/name = "Tile_35.png 26"
26/texture = ExtResource( 35 )
26/tex_offset = Vector2( 0, 0 )
26/modulate = Color( 1, 1, 1, 1 )
26/region = Rect2( 0, 0, 32, 32 )
26/tile_mode = 0
26/occluder_offset = Vector2( 0, 0 )
26/navigation_offset = Vector2( 0, 0 )
26/shape_offset = Vector2( 0, 0 )
26/shape_transform = Transform2D( 1, 0, 0, 1, 0, 0 )
26/shape = SubResource( 24 )
26/shape_one_way = false
26/shape_one_way_margin = 1.0
26/shapes = [ {
"autotile_coord": Vector2( 0, 0 ),
"one_way": false,
"one_way_margin": 1.0,
"shape": SubResource( 24 ),
"shape_transform": Transform2D( 1, 0, 0, 1, 0, 0 )
} ]
26/z_index = 0
27/name = "Tile_36.png 27"
27/texture = ExtResource( 36 )
27/tex_offset = Vector2( 0, 0 )
27/modulate = Color( 1, 1, 1, 1 )
27/region = Rect2( 0, 0, 32, 32 )
27/tile_mode = 0
27/occluder_offset = Vector2( 0, 0 )
27/navigation_offset = Vector2( 0, 0 )
27/shape_offset = Vector2( 0, 0 )
27/shape_transform = Transform2D( 1, 0, 0, 1, 0, 0 )
27/shape = SubResource( 25 )
27/shape_one_way = false
27/shape_one_way_margin = 1.0
27/shapes = [ {
"autotile_coord": Vector2( 0, 0 ),
"one_way": false,
"one_way_margin": 1.0,
"shape": SubResource( 25 ),
"shape_transform": Transform2D( 1, 0, 0, 1, 0, 0 )
} ]
27/z_index = 0
28/name = "Tile_37.png 28"
28/texture = ExtResource( 37 )
28/tex_offset = Vector2( 0, 0 )
28/modulate = Color( 1, 1, 1, 1 )
28/region = Rect2( 0, 0, 32, 32 )
28/tile_mode = 0
28/occluder_offset = Vector2( 0, 0 )
28/navigation_offset = Vector2( 0, 0 )
28/shape_offset = Vector2( 0, 0 )
28/shape_transform = Transform2D( 1, 0, 0, 1, 0, 0 )
28/shape = SubResource( 26 )
28/shape_one_way = false
28/shape_one_way_margin = 1.0
28/shapes = [ {
"autotile_coord": Vector2( 0, 0 ),
"one_way": false,
"one_way_margin": 1.0,
"shape": SubResource( 26 ),
"shape_transform": Transform2D( 1, 0, 0, 1, 0, 0 )
} ]
28/z_index = 0
29/name = "Tile_38.png 29"
29/texture = ExtResource( 38 )
29/tex_offset = Vector2( 0, 0 )
29/modulate = Color( 1, 1, 1, 1 )
29/region = Rect2( 0, 0, 32, 32 )
29/tile_mode = 0
29/occluder_offset = Vector2( 0, 0 )
29/navigation_offset = Vector2( 0, 0 )
29/shape_offset = Vector2( 0, 0 )
29/shape_transform = Transform2D( 1, 0, 0, 1, 0, 0 )
29/shape = SubResource( 27 )
29/shape_one_way = false
29/shape_one_way_margin = 1.0
29/shapes = [ {
"autotile_coord": Vector2( 0, 0 ),
"one_way": false,
"one_way_margin": 1.0,
"shape": SubResource( 27 ),
"shape_transform": Transform2D( 1, 0, 0, 1, 0, 0 )
} ]
29/z_index = 0
30/name = "Tile_39.png 30"
30/texture = ExtResource( 39 )
30/tex_offset = Vector2( 0, 0 )
30/modulate = Color( 1, 1, 1, 1 )
30/region = Rect2( 0, 0, 32, 32 )
30/tile_mode = 0
30/occluder_offset = Vector2( 0, 0 )
30/navigation_offset = Vector2( 0, 0 )
30/shape_offset = Vector2( 0, 0 )
30/shape_transform = Transform2D( 1, 0, 0, 1, 0, 0 )
30/shape = SubResource( 29 )
30/shape_one_way = false
30/shape_one_way_margin = 1.0
30/shapes = [ {
"autotile_coord": Vector2( 0, 0 ),
"one_way": false,
"one_way_margin": 1.0,
"shape": SubResource( 29 ),
"shape_transform": Transform2D( 1, 0, 0, 1, 0, 0 )
} ]
30/z_index = 0
31/name = "Tile_40.png 31"
31/texture = ExtResource( 40 )
31/tex_offset = Vector2( 0, 0 )
31/modulate = Color( 1, 1, 1, 1 )
31/region = Rect2( 0, 0, 32, 32 )
31/tile_mode = 0
31/occluder_offset = Vector2( 0, 0 )
31/navigation_offset = Vector2( 0, 0 )
31/shape_offset = Vector2( 0, 0 )
31/shape_transform = Transform2D( 1, 0, 0, 1, 0, 0 )
31/shape = SubResource( 30 )
31/shape_one_way = false
31/shape_one_way_margin = 1.0
31/shapes = [ {
"autotile_coord": Vector2( 0, 0 ),
"one_way": false,
"one_way_margin": 1.0,
"shape": SubResource( 30 ),
"shape_transform": Transform2D( 1, 0, 0, 1, 0, 0 )
}, {
"autotile_coord": Vector2( 0, 0 ),
"one_way": false,
"one_way_margin": 1.0,
"shape": SubResource( 31 ),
"shape_transform": Transform2D( 1, 0, 0, 1, 0, 0 )
}, {
"autotile_coord": Vector2( 0, 0 ),
"one_way": false,
"one_way_margin": 1.0,
"shape": SubResource( 32 ),
"shape_transform": Transform2D( 1, 0, 0, 1, 0, 0 )
} ]
31/z_index = 0
32/name = "Tile_41.png 32"
32/texture = ExtResource( 41 )
32/tex_offset = Vector2( 0, 0 )
32/modulate = Color( 1, 1, 1, 1 )
32/region = Rect2( 0, 0, 32, 32 )
32/tile_mode = 0
32/occluder_offset = Vector2( 0, 0 )
32/navigation_offset = Vector2( 0, 0 )
32/shape_offset = Vector2( 0, 0 )
32/shape_transform = Transform2D( 1, 0, 0, 1, 0, 0 )
32/shape = SubResource( 33 )
32/shape_one_way = false
32/shape_one_way_margin = 1.0
32/shapes = [ {
"autotile_coord": Vector2( 0, 0 ),
"one_way": false,
"one_way_margin": 1.0,
"shape": SubResource( 33 ),
"shape_transform": Transform2D( 1, 0, 0, 1, 0, 0 )
}, {
"autotile_coord": Vector2( 0, 0 ),
"one_way": false,
"one_way_margin": 1.0,
"shape": SubResource( 34 ),
"shape_transform": Transform2D( 1, 0, 0, 1, 0, 0 )
} ]
32/z_index = 0
33/name = "Tile_42.png 33"
33/texture = ExtResource( 42 )
33/tex_offset = Vector2( 0, 0 )
33/modulate = Color( 1, 1, 1, 1 )
33/region = Rect2( 0, 0, 32, 32 )
33/tile_mode = 0
33/occluder_offset = Vector2( 0, 0 )
33/navigation_offset = Vector2( 0, 0 )
33/shape_offset = Vector2( 0, 0 )
33/shape_transform = Transform2D( 1, 0, 0, 1, 0, 0 )
33/shape = SubResource( 35 )
33/shape_one_way = false
33/shape_one_way_margin = 1.0
33/shapes = [ {
"autotile_coord": Vector2( 0, 0 ),
"one_way": false,
"one_way_margin": 1.0,
"shape": SubResource( 35 ),
"shape_transform": Transform2D( 1, 0, 0, 1, 0, 0 )
}, {
"autotile_coord": Vector2( 0, 0 ),
"one_way": false,
"one_way_margin": 1.0,
"shape": SubResource( 36 ),
"shape_transform": Transform2D( 1, 0, 0, 1, 0, 0 )
} ]
33/z_index = 0
34/name = "Tile_43.png 34"
34/texture = ExtResource( 43 )
34/tex_offset = Vector2( 0, 0 )
34/modulate = Color( 1, 1, 1, 1 )
34/region = Rect2( 0, 0, 32, 32 )
34/tile_mode = 0
34/occluder_offset = Vector2( 0, 0 )
34/navigation_offset = Vector2( 0, 0 )
34/shape_offset = Vector2( 0, 0 )
34/shape_transform = Transform2D( 1, 0, 0, 1, 0, 0 )
34/shape = SubResource( 37 )
34/shape_one_way = false
34/shape_one_way_margin = 1.0
34/shapes = [ {
"autotile_coord": Vector2( 0, 0 ),
"one_way": false,
"one_way_margin": 1.0,
"shape": SubResource( 37 ),
"shape_transform": Transform2D( 1, 0, 0, 1, 0, 0 )
} ]
34/z_index = 0
35/name = "Tile_44.png 35"
35/texture = ExtResource( 44 )
35/tex_offset = Vector2( 0, 0 )
35/modulate = Color( 1, 1, 1, 1 )
35/region = Rect2( 0, 0, 32, 32 )
35/tile_mode = 0
35/occluder_offset = Vector2( 0, 0 )
35/navigation_offset = Vector2( 0, 0 )
35/shape_offset = Vector2( 0, 0 )
35/shape_transform = Transform2D( 1, 0, 0, 1, 0, 0 )
35/shape = SubResource( 38 )
35/shape_one_way = false
35/shape_one_way_margin = 1.0
35/shapes = [ {
"autotile_coord": Vector2( 0, 0 ),
"one_way": false,
"one_way_margin": 1.0,
"shape": SubResource( 38 ),
"shape_transform": Transform2D( 1, 0, 0, 1, 0, 0 )
} ]
35/z_index = 0
36/name = "Tile_45.png 36"
36/texture = ExtResource( 45 )
36/tex_offset = Vector2( 0, 0 )
36/modulate = Color( 1, 1, 1, 1 )
36/region = Rect2( 0, 0, 32, 32 )
36/tile_mode = 0
36/occluder_offset = Vector2( 0, 0 )
36/navigation_offset = Vector2( 0, 0 )
36/shape_offset = Vector2( 0, 0 )
36/shape_transform = Transform2D( 1, 0, 0, 1, 0, 0 )
36/shape = SubResource( 39 )
36/shape_one_way = false
36/shape_one_way_margin = 1.0
36/shapes = [ {
"autotile_coord": Vector2( 0, 0 ),
"one_way": false,
"one_way_margin": 1.0,
"shape": SubResource( 39 ),
"shape_transform": Transform2D( 1, 0, 0, 1, 0, 0 )
} ]
36/z_index = 0
37/name = "Tile_46.png 37"
37/texture = ExtResource( 46 )
37/tex_offset = Vector2( 0, 0 )
37/modulate = Color( 1, 1, 1, 1 )
37/region = Rect2( 0, 0, 32, 32 )
37/tile_mode = 0
37/occluder_offset = Vector2( 0, 0 )
37/navigation_offset = Vector2( 0, 0 )
37/shape_offset = Vector2( 0, 0 )
37/shape_transform = Transform2D( 1, 0, 0, 1, 0, 0 )
37/shape = SubResource( 40 )
37/shape_one_way = false
37/shape_one_way_margin = 1.0
37/shapes = [ {
"autotile_coord": Vector2( 0, 0 ),
"one_way": false,
"one_way_margin": 1.0,
"shape": SubResource( 40 ),
"shape_transform": Transform2D( 1, 0, 0, 1, 0, 0 )
} ]
37/z_index = 0
38/name = "Tile_47.png 38"
38/texture = ExtResource( 47 )
38/tex_offset = Vector2( 0, 0 )
38/modulate = Color( 1, 1, 1, 1 )
38/region = Rect2( 0, 0, 32, 32 )
38/tile_mode = 0
38/occluder_offset = Vector2( 0, 0 )
38/navigation_offset = Vector2( 0, 0 )
38/shape_offset = Vector2( 0, 0 )
38/shape_transform = Transform2D( 1, 0, 0, 1, 0, 0 )
38/shape = SubResource( 41 )
38/shape_one_way = false
38/shape_one_way_margin = 1.0
38/shapes = [ {
"autotile_coord": Vector2( 0, 0 ),
"one_way": false,
"one_way_margin": 1.0,
"shape": SubResource( 41 ),
"shape_transform": Transform2D( 1, 0, 0, 1, 0, 0 )
} ]
38/z_index = 0
39/name = "Tile_48.png 39"
39/texture = ExtResource( 48 )
39/tex_offset = Vector2( 0, 0 )
39/modulate = Color( 1, 1, 1, 1 )
39/region = Rect2( 0, 0, 32, 32 )
39/tile_mode = 0
39/occluder_offset = Vector2( 0, 0 )
39/navigation_offset = Vector2( 0, 0 )
39/shape_offset = Vector2( 0, 0 )
39/shape_transform = Transform2D( 1, 0, 0, 1, 0, 0 )
39/shape = SubResource( 42 )
39/shape_one_way = false
39/shape_one_way_margin = 1.0
39/shapes = [ {
"autotile_coord": Vector2( 0, 0 ),
"one_way": false,
"one_way_margin": 1.0,
"shape": SubResource( 42 ),
"shape_transform": Transform2D( 1, 0, 0, 1, 0, 0 )
} ]
39/z_index = 0
40/name = "Tile_50.png 40"
40/texture = ExtResource( 49 )
40/tex_offset = Vector2( 0, 0 )
40/modulate = Color( 1, 1, 1, 1 )
40/region = Rect2( 0, 0, 32, 32 )
40/tile_mode = 0
40/occluder_offset = Vector2( 0, 0 )
40/navigation_offset = Vector2( 0, 0 )
40/shape_offset = Vector2( 0, 0 )
40/shape_transform = Transform2D( 1, 0, 0, 1, 0, 0 )
40/shape = SubResource( 44 )
40/shape_one_way = false
40/shape_one_way_margin = 1.0
40/shapes = [ {
"autotile_coord": Vector2( 0, 0 ),
"one_way": false,
"one_way_margin": 1.0,
"shape": SubResource( 44 ),
"shape_transform": Transform2D( 1, 0, 0, 1, 0, 0 )
}, {
"autotile_coord": Vector2( 0, 0 ),
"one_way": false,
"one_way_margin": 1.0,
"shape": SubResource( 45 ),
"shape_transform": Transform2D( 1, 0, 0, 1, 0, 0 )
} ]
40/z_index = 0
41/name = "Tile_51.png 41"
41/texture = ExtResource( 50 )
41/tex_offset = Vector2( 0, 0 )
41/modulate = Color( 1, 1, 1, 1 )
41/region = Rect2( 0, 0, 32, 32 )
41/tile_mode = 0
41/occluder_offset = Vector2( 0, 0 )
41/navigation_offset = Vector2( 0, 0 )
41/shape_offset = Vector2( 0, 0 )
41/shape_transform = Transform2D( 1, 0, 0, 1, 0, 0 )
41/shape = SubResource( 46 )
41/shape_one_way = false
41/shape_one_way_margin = 1.0
41/shapes = [ {
"autotile_coord": Vector2( 0, 0 ),
"one_way": false,
"one_way_margin": 1.0,
"shape": SubResource( 46 ),
"shape_transform": Transform2D( 1, 0, 0, 1, 0, 0 )
}, {
"autotile_coord": Vector2( 0, 0 ),
"one_way": false,
"one_way_margin": 1.0,
"shape": SubResource( 47 ),
"shape_transform": Transform2D( 1, 0, 0, 1, 0, 0 )
} ]
41/z_index = 0
42/name = "Tile_52.png 42"
42/texture = ExtResource( 51 )
42/tex_offset = Vector2( 0, 0 )
42/modulate = Color( 1, 1, 1, 1 )
42/region = Rect2( 0, 0, 32, 32 )
42/tile_mode = 0
42/occluder_offset = Vector2( 0, 0 )
42/navigation_offset = Vector2( 0, 0 )
42/shape_offset = Vector2( 0, 0 )
42/shape_transform = Transform2D( 1, 0, 0, 1, 0, 0 )
42/shape = SubResource( 48 )
42/shape_one_way = false
42/shape_one_way_margin = 1.0
42/shapes = [ {
"autotile_coord": Vector2( 0, 0 ),
"one_way": false,
"one_way_margin": 1.0,
"shape": SubResource( 48 ),
"shape_transform": Transform2D( 1, 0, 0, 1, 0, 0 )
}, {
"autotile_coord": Vector2( 0, 0 ),
"one_way": false,
"one_way_margin": 1.0,
"shape": SubResource( 49 ),
"shape_transform": Transform2D( 1, 0, 0, 1, 0, 0 )
}, {
"autotile_coord": Vector2( 0, 0 ),
"one_way": false,
"one_way_margin": 1.0,
"shape": SubResource( 50 ),
"shape_transform": Transform2D( 1, 0, 0, 1, 0, 0 )
} ]
42/z_index = 0
43/name = "Tile_53.png 43"
43/texture = ExtResource( 52 )
43/tex_offset = Vector2( 0, 0 )
43/modulate = Color( 1, 1, 1, 1 )
43/region = Rect2( 0, 0, 32, 32 )
43/tile_mode = 0
43/occluder_offset = Vector2( 0, 0 )
43/navigation_offset = Vector2( 0, 0 )
43/shape_offset = Vector2( 0, 0 )
43/shape_transform = Transform2D( 1, 0, 0, 1, 0, 0 )
43/shape = SubResource( 51 )
43/shape_one_way = false
43/shape_one_way_margin = 1.0
43/shapes = [ {
"autotile_coord": Vector2( 0, 0 ),
"one_way": false,
"one_way_margin": 1.0,
"shape": SubResource( 51 ),
"shape_transform": Transform2D( 1, 0, 0, 1, 0, 0 )
} ]
43/z_index = 0
44/name = "Tile_54.png 44"
44/texture = ExtResource( 53 )
44/tex_offset = Vector2( 0, 0 )
44/modulate = Color( 1, 1, 1, 1 )
44/region = Rect2( 0, 0, 32, 32 )
44/tile_mode = 0
44/occluder_offset = Vector2( 0, 0 )
44/navigation_offset = Vector2( 0, 0 )
44/shape_offset = Vector2( 0, 0 )
44/shape_transform = Transform2D( 1, 0, 0, 1, 0, 0 )
44/shape = SubResource( 52 )
44/shape_one_way = false
44/shape_one_way_margin = 1.0
44/shapes = [ {
"autotile_coord": Vector2( 0, 0 ),
"one_way": false,
"one_way_margin": 1.0,
"shape": SubResource( 52 ),
"shape_transform": Transform2D( 1, 0, 0, 1, 0, 0 )
} ]
44/z_index = 0
45/name = "Tile_55.png 45"
45/texture = ExtResource( 54 )
45/tex_offset = Vector2( 0, 0 )
45/modulate = Color( 1, 1, 1, 1 )
45/region = Rect2( 0, 0, 32, 32 )
45/tile_mode = 0
45/occluder_offset = Vector2( 0, 0 )
45/navigation_offset = Vector2( 0, 0 )
45/shape_offset = Vector2( 0, 0 )
45/shape_transform = Transform2D( 1, 0, 0, 1, 0, 0 )
45/shape = SubResource( 53 )
45/shape_one_way = false
45/shape_one_way_margin = 1.0
45/shapes = [ {
"autotile_coord": Vector2( 0, 0 ),
"one_way": false,
"one_way_margin": 1.0,
"shape": SubResource( 53 ),
"shape_transform": Transform2D( 1, 0, 0, 1, 0, 0 )
} ]
45/z_index = 0
46/name = "Tile_56.png 46"
46/texture = ExtResource( 55 )
46/tex_offset = Vector2( 0, 0 )
46/modulate = Color( 1, 1, 1, 1 )
46/region = Rect2( 0, 0, 32, 32 )
46/tile_mode = 0
46/occluder_offset = Vector2( 0, 0 )
46/navigation_offset = Vector2( 0, 0 )
46/shape_offset = Vector2( 0, 0 )
46/shape_transform = Transform2D( 1, 0, 0, 1, 0, 0 )
46/shape = SubResource( 54 )
46/shape_one_way = false
46/shape_one_way_margin = 1.0
46/shapes = [ {
"autotile_coord": Vector2( 0, 0 ),
"one_way": false,
"one_way_margin": 1.0,
"shape": SubResource( 54 ),
"shape_transform": Transform2D( 1, 0, 0, 1, 0, 0 )
} ]
46/z_index = 0
47/name = "Tile_57.png 47"
47/texture = ExtResource( 56 )
47/tex_offset = Vector2( 0, 0 )
47/modulate = Color( 1, 1, 1, 1 )
47/region = Rect2( 0, 0, 32, 32 )
47/tile_mode = 0
47/occluder_offset = Vector2( 0, 0 )
47/navigation_offset = Vector2( 0, 0 )
47/shape_offset = Vector2( 0, 0 )
47/shape_transform = Transform2D( 1, 0, 0, 1, 0, 0 )
47/shape = SubResource( 55 )
47/shape_one_way = false
47/shape_one_way_margin = 1.0
47/shapes = [ {
"autotile_coord": Vector2( 0, 0 ),
"one_way": false,
"one_way_margin": 1.0,
"shape": SubResource( 55 ),
"shape_transform": Transform2D( 1, 0, 0, 1, 0, 0 )
} ]
47/z_index = 0
48/name = "Tile_58.png 48"
48/texture = ExtResource( 57 )
48/tex_offset = Vector2( 0, 0 )
48/modulate = Color( 1, 1, 1, 1 )
48/region = Rect2( 0, 0, 32, 32 )
48/tile_mode = 0
48/occluder_offset = Vector2( 0, 0 )
48/navigation_offset = Vector2( 0, 0 )
48/shape_offset = Vector2( 0, 0 )
48/shape_transform = Transform2D( 1, 0, 0, 1, 0, 0 )
48/shape = SubResource( 56 )
48/shape_one_way = false
48/shape_one_way_margin = 1.0
48/shapes = [ {
"autotile_coord": Vector2( 0, 0 ),
"one_way": false,
"one_way_margin": 1.0,
"shape": SubResource( 56 ),
"shape_transform": Transform2D( 1, 0, 0, 1, 0, 0 )
} ]
48/z_index = 0
49/name = "Tile_60.png 49"
49/texture = ExtResource( 58 )
49/tex_offset = Vector2( 0, 0 )
49/modulate = Color( 1, 1, 1, 1 )
49/region = Rect2( 0, 0, 32, 32 )
49/tile_mode = 0
49/occluder_offset = Vector2( 0, 0 )
49/navigation_offset = Vector2( 0, 0 )
49/shape_offset = Vector2( 0, 0 )
49/shape_transform = Transform2D( 1, 0, 0, 1, 0, 0 )
49/shape = SubResource( 57 )
49/shape_one_way = false
49/shape_one_way_margin = 1.0
49/shapes = [ {
"autotile_coord": Vector2( 0, 0 ),
"one_way": false,
"one_way_margin": 1.0,
"shape": SubResource( 57 ),
"shape_transform": Transform2D( 1, 0, 0, 1, 0, 0 )
} ]
49/z_index = 0
50/name = "Tile_04.png 50"
50/texture = ExtResource( 59 )
50/tex_offset = Vector2( 0, 0 )
50/modulate = Color( 1, 1, 1, 1 )
50/region = Rect2( 0, 0, 32, 32 )
50/tile_mode = 0
50/occluder_offset = Vector2( 0, 0 )
50/navigation_offset = Vector2( 0, 0 )
50/shape_offset = Vector2( 0, 0 )
50/shape_transform = Transform2D( 1, 0, 0, 1, 0, 0 )
50/shape = SubResource( 59 )
50/shape_one_way = false
50/shape_one_way_margin = 1.0
50/shapes = [ {
"autotile_coord": Vector2( 0, 0 ),
"one_way": false,
"one_way_margin": 1.0,
"shape": SubResource( 59 ),
"shape_transform": Transform2D( 1, 0, 0, 1, 0, 0 )
} ]
50/z_index = 0
51/name = "Tile_05.png 51"
51/texture = ExtResource( 60 )
51/tex_offset = Vector2( 0, 0 )
51/modulate = Color( 1, 1, 1, 1 )
51/region = Rect2( 0, 0, 32, 32 )
51/tile_mode = 0
51/occluder_offset = Vector2( 0, 0 )
51/navigation_offset = Vector2( 0, 0 )
51/shape_offset = Vector2( 0, 0 )
51/shape_transform = Transform2D( 1, 0, 0, 1, 0, 0 )
51/shape = SubResource( 60 )
51/shape_one_way = false
51/shape_one_way_margin = 1.0
51/shapes = [ {
"autotile_coord": Vector2( 0, 0 ),
"one_way": false,
"one_way_margin": 1.0,
"shape": SubResource( 60 ),
"shape_transform": Transform2D( 1, 0, 0, 1, 0, 0 )
} ]
51/z_index = 0
52/name = "Tile_06.png 52"
52/texture = ExtResource( 61 )
52/tex_offset = Vector2( 0, 0 )
52/modulate = Color( 1, 1, 1, 1 )
52/region = Rect2( 0, 0, 32, 32 )
52/tile_mode = 0
52/occluder_offset = Vector2( 0, 0 )
52/navigation_offset = Vector2( 0, 0 )
52/shape_offset = Vector2( 0, 0 )
52/shape_transform = Transform2D( 1, 0, 0, 1, 0, 0 )
52/shape = SubResource( 61 )
52/shape_one_way = false
52/shape_one_way_margin = 1.0
52/shapes = [ {
"autotile_coord": Vector2( 0, 0 ),
"one_way": false,
"one_way_margin": 1.0,
"shape": SubResource( 61 ),
"shape_transform": Transform2D( 1, 0, 0, 1, 0, 0 )
} ]
52/z_index = 0
53/name = "Tile_10.png 53"
53/texture = ExtResource( 62 )
53/tex_offset = Vector2( 0, 0 )
53/modulate = Color( 1, 1, 1, 1 )
53/region = Rect2( 0, 0, 32, 32 )
53/tile_mode = 0
53/occluder_offset = Vector2( 0, 0 )
53/navigation_offset = Vector2( 0, 0 )
53/shape_offset = Vector2( 0, 0 )
53/shape_transform = Transform2D( 1, 0, 0, 1, 0, 0 )
53/shape = SubResource( 62 )
53/shape_one_way = false
53/shape_one_way_margin = 1.0
53/shapes = [ {
"autotile_coord": Vector2( 0, 0 ),
"one_way": false,
"one_way_margin": 1.0,
"shape": SubResource( 62 ),
"shape_transform": Transform2D( 1, 0, 0, 1, 0, 0 )
} ]
53/z_index = 0
54/name = "Tile_11.png 54"
54/texture = ExtResource( 63 )
54/tex_offset = Vector2( 0, 0 )
54/modulate = Color( 1, 1, 1, 1 )
54/region = Rect2( 0, 0, 32, 32 )
54/tile_mode = 0
54/occluder_offset = Vector2( 0, 0 )
54/navigation_offset = Vector2( 0, 0 )
54/shape_offset = Vector2( 0, 0 )
54/shape_transform = Transform2D( 1, 0, 0, 1, 0, 0 )
54/shape = SubResource( 63 )
54/shape_one_way = false
54/shape_one_way_margin = 1.0
54/shapes = [ {
"autotile_coord": Vector2( 0, 0 ),
"one_way": false,
"one_way_margin": 1.0,
"shape": SubResource( 63 ),
"shape_transform": Transform2D( 1, 0, 0, 1, 0, 0 )
} ]
54/z_index = 0

[sub_resource type="RectangleShape2D" id=70]
extents = Vector2( 34.4745, 66.9424 )

[sub_resource type="ParticlesMaterial" id=71]
emission_shape = 2
emission_box_extents = Vector3( 2000, 1, 1 )
flag_disable_z = true
spread = 20.0
gravity = Vector3( -500, 500, 0 )
orbit_velocity = 0.0
orbit_velocity_random = 0.0
angle = 45.0
scale = 5.0
scale_random = 0.5

[node name="StageTwo" type="Node2D"]
position = Vector2( 45.5569, 64.6272 )
script = ExtResource( 11 )
__meta__ = {
"_edit_vertical_guides_": [ 1750.29 ]
}

[node name="Player" parent="." instance=ExtResource( 2 )]
position = Vector2( -39.8381, -148.093 )

[node name="TileMap" type="TileMap" parent="."]
position = Vector2( -44.4974, -58.2705 )
tile_set = SubResource( 69 )
cell_size = Vector2( 32, 32 )
format = 1
tile_data = PoolIntArray( 0, -1610612735, 0, 65536, -1610612735, 0, 131072, -1610612735, 0, 196608, -1610612735, 0, 262144, -1610612735, 0, 327680, -1610612735, 0, 393216, -1610612735, 0, 393217, 24, 0, 393218, 24, 0, 393219, 24, 0, 393220, 24, 0, 393221, 24, 0, 393222, 24, 0, 393223, 24, 0, 393224, 24, 0, 393225, 25, 0, 393258, 23, 0, 393259, 24, 0, 393260, 24, 0, 393261, 24, 0, 393262, 25, 0, 458752, -1610612735, 0, 524288, -1610612735, 0, 524299, 0, 0, 524300, 11, 0, 524301, 11, 0, 524302, 11, 0, 524303, 11, 0, 524304, 53, 0, 524305, 53, 0, 524306, 2, 0, 524308, 0, 0, 524309, 1, 0, 524327, 1, 0, 524328, 2, 0, 524336, 0, 0, 524337, 1, 0, 524338, 1, 0, 524339, 1, 0, 524340, 1, 0, 524341, 1, 0, 524342, 1, 0, 524343, 1, 0, 589824, -1610612735, 0, 589835, 54, 0, 589836, 3, 0, 589837, 3, 0, 589838, 3, 0, 589839, 3, 0, 589840, 3, 0, 589841, 3, 0, 589842, 5, 0, 589844, 54, 0, 589845, 3, 0, 589846, 1, 0, 589847, 1, 0, 589848, 1, 0, 589849, 1, 0, 589850, 1, 0, 589851, 1, 0, 589852, 1, 0, 589853, 1, 0, 589854, 1, 0, 589855, 1, 0, 589856, 1, 0, 589857, 1, 0, 589858, 1, 0, 589859, 1, 0, 589860, 1, 0, 589861, 1, 0, 589862, 1, 0, 589863, 3, 0, 589864, 5, 0, 589872, 12, 0, 589873, 3, 0, 589874, 3, 0, 589875, 3, 0, 589876, 3, 0, 589877, 3, 0, 589878, 3, 0, 589879, 3, 0 )

[node name="EnemyFrog" parent="." instance=ExtResource( 1 )]
position = Vector2( 241.321, 114.141 )

[node name="EnemyFrog2" parent="." instance=ExtResource( 1 )]
position = Vector2( 557.398, 188.388 )

[node name="EnemyFrog3" parent="." instance=ExtResource( 1 )]
position = Vector2( 751.852, 217.379 )

[node name="EnemyFrog4" parent="." instance=ExtResource( 1 )]
position = Vector2( 751.852, 217.379 )

[node name="EnemyFrog5" parent="." instance=ExtResource( 1 )]
position = Vector2( 690.334, 217.379 )

[node name="EnemyFrog6" parent="." instance=ExtResource( 1 )]
position = Vector2( 838.119, 216.672 )

[node name="EnemyFrog7" parent="." instance=ExtResource( 1 )]
position = Vector2( 945.599, 220.207 )

[node name="EnemyFrog8" parent="." instance=ExtResource( 1 )]
position = Vector2( 1065.81, 215.965 )

[node name="ParallaxBackground" type="ParallaxBackground" parent="."]

[node name="ParallaxLayer" type="ParallaxLayer" parent="ParallaxBackground"]
motion_mirroring = Vector2( 576, 0 )

[node name="Sprite" type="Sprite" parent="ParallaxBackground/ParallaxLayer"]
position = Vector2( -0.710449, -0.200134 )
texture = ExtResource( 6 )
centered = false

[node name="AreaTrigger" parent="." instance=ExtResource( 9 )]
position = Vector2( 889.843, 296.035 )
scale = Vector2( 4, 0.5 )

[node name="CanvasLayer2" type="CanvasLayer" parent="."]

[node name="TimeCounter" parent="CanvasLayer2" instance=ExtResource( 10 )]
margin_left = 2.0
margin_top = 5.0
margin_right = 411.0
margin_bottom = 323.0

[node name="Sprite" type="Sprite" parent="."]
position = Vector2( 1542.4, 189.084 )
texture = ExtResource( 7 )

[node name="AreaFinish" type="Area2D" parent="."]
position = Vector2( 1639.22, 166.373 )
script = ExtResource( 64 )

[node name="CollisionShape2D" type="CollisionShape2D" parent="AreaFinish"]
position = Vector2( 30.8533, -37.0298 )
shape = SubResource( 70 )

[node name="Timer" type="Timer" parent="."]

[node name="Particles2D" type="Particles2D" parent="."]
show_behind_parent = true
position = Vector2( 662.557, -102.828 )
rotation = 3.14159
amount = 500
lifetime = 4.0
speed_scale = 0.5
visibility_rect = Rect2( -2000, -1000, 3000, 1000 )
local_coords = false
process_material = SubResource( 71 )
[connection signal="body_entered" from="AreaFinish" to="AreaFinish" method="_on_AreaFinish_body_entered"]
[connection signal="timeout" from="Timer" to="." method="_on_Timer_timeout"]
